{
  "env": {
    "utils": {
      "comments": false,
      "minified": true,
      "presets": [
        [
          "@babel/preset-env",
          {
            "loose": true,
            "modules": "commonjs",
            "targets": {
              "browsers": ["> 1%", "last 2 versions", "not ie <= 8"]
            }
          }
        ]
      ],
      "plugins": [
        ["module-resolver", {
          "root": ["mallui"],
          "alias": {
            "mallui/src": "mallui/lib"
          }
        }]
      ]
    }
  }
}
